simulation/qsim/Project_FreqDiv.msim.vcd
$comment
	File created using the following command:
		vcd file Project_FreqDiv.msim.vcd -direction
$end
$date
	Thu Aug 08 12:11:50 2024
$end
$version
	ModelSim Version 10.3d
$end
$timescale
	1ps
$end

$scope module MyProject_TrafficLight_vlg_vec_tst $end
$var reg 1 ! clk $end
$var reg 1 " clr $end
$var wire 1 # pin_name2 $end
$var wire 1 $ pin_name4 $end
$var wire 1 % pin_name5 $end
$var wire 1 & pin_name6 $end
$var wire 1 ' pin_name7 $end
$var wire 1 ( pin_name8 $end
$var wire 1 ) pin_name9 $end
$var wire 1 * pin_name10 $end
$var wire 1 + pin_name11 $end
$var wire 1 , pin_name12 $end
$var wire 1 - pin_name13 $end
$var wire 1 . pin_name14 $end
$var wire 1 / pin_name15 $end
$var wire 1 0 pin_name16 $end
$var wire 1 1 pin_name17 $end
$var wire 1 2 pin_name18 $end
$var wire 1 3 pin_name19 $end
$var wire 1 4 pin_name20 $end
$var wire 1 5 pin_name21 $end
$var wire 1 6 pin_name22 $end
$var wire 1 7 pin_name23 $end
$var wire 1 8 pin_name24 $end
$var wire 1 9 pin_name25 $end
$var wire 1 : pin_name26 $end
$var wire 1 ; pin_name27 $end
$var wire 1 < pin_name28 $end
$var wire 1 = pin_name29 $end
$var wire 1 > sampler $end

$scope module i1 $end
$var wire 1 ? gnd $end
$var wire 1 @ vcc $end
$var wire 1 A unknown $end
$var tri1 1 B devclrn $end
$var tri1 1 C devpor $end
$var tri1 1 D devoe $end
$var wire 1 E ~QUARTUS_CREATED_GND~I_combout $end
$var wire 1 F clk~input_o $end
$var wire 1 G clk~inputCLKENA0_outclk $end
$var wire 1 H inst|Add0~57_sumout $end
$var wire 1 I inst|Add0~2 $end
$var wire 1 J inst|Add0~25_sumout $end
$var wire 1 K inst|Add0~26 $end
$var wire 1 L inst|Add0~21_sumout $end
$var wire 1 M inst|Add0~22 $end
$var wire 1 N inst|Add0~17_sumout $end
$var wire 1 O inst|Add0~18 $end
$var wire 1 P inst|Add0~13_sumout $end
$var wire 1 Q inst|Add0~14 $end
$var wire 1 R inst|Add0~53_sumout $end
$var wire 1 S inst|Add0~54 $end
$var wire 1 T inst|Add0~5_sumout $end
$var wire 1 U inst|Add0~6 $end
$var wire 1 V inst|Add0~49_sumout $end
$var wire 1 W inst|Add0~50 $end
$var wire 1 X inst|Add0~45_sumout $end
$var wire 1 Y inst|Add0~46 $end
$var wire 1 Z inst|Add0~41_sumout $end
$var wire 1 [ inst|Add0~42 $end
$var wire 1 \ inst|Add0~37_sumout $end
$var wire 1 ] inst|Add0~38 $end
$var wire 1 ^ inst|Add0~33_sumout $end
$var wire 1 _ inst|Add0~34 $end
$var wire 1 ` inst|Add0~61_sumout $end
$var wire 1 a inst|Add0~62 $end
$var wire 1 b inst|Add0~65_sumout $end
$var wire 1 c inst|Add0~66 $end
$var wire 1 d inst|Add0~69_sumout $end
$var wire 1 e inst|Add0~70 $end
$var wire 1 f inst|Add0~73_sumout $end
$var wire 1 g inst|Add0~74 $end
$var wire 1 h inst|Add0~77_sumout $end
$var wire 1 i inst|Add0~78 $end
$var wire 1 j inst|Add0~81_sumout $end
$var wire 1 k inst|Add0~82 $end
$var wire 1 l inst|Add0~85_sumout $end
$var wire 1 m inst|Add0~86 $end
$var wire 1 n inst|Add0~89_sumout $end
$var wire 1 o inst|Add0~90 $end
$var wire 1 p inst|Add0~93_sumout $end
$var wire 1 q inst|Add0~94 $end
$var wire 1 r inst|Add0~97_sumout $end
$var wire 1 s inst|Add0~98 $end
$var wire 1 t inst|Add0~29_sumout $end
$var wire 1 u inst|Equal0~1_combout $end
$var wire 1 v inst|Equal0~2_combout $end
$var wire 1 w inst|Add0~30 $end
$var wire 1 x inst|Add0~9_sumout $end
$var wire 1 y inst|Equal0~0_combout $end
$var wire 1 z inst|Equal0~3_combout $end
$var wire 1 { inst|Equal0~4_combout $end
$var wire 1 | inst|Add0~58 $end
$var wire 1 } inst|Add0~1_sumout $end
$var wire 1 ~ inst|temp~0_combout $end
$var wire 1 !! inst|temp~q $end
$var wire 1 "! clr~input_o $end
$var wire 1 #! inst6|count[0]~DUPLICATE_q $end
$var wire 1 $! inst6|count[1]~DUPLICATE_q $end
$var wire 1 %! inst6|count[3]~DUPLICATE_q $end
$var wire 1 &! inst6|state.s2~q $end
$var wire 1 '! inst6|Selector8~0_combout $end
$var wire 1 (! inst6|state.s2~DUPLICATE_q $end
$var wire 1 )! inst6|Selector9~0_combout $end
$var wire 1 *! inst6|state.s3~q $end
$var wire 1 +! inst6|count[2]~DUPLICATE_q $end
$var wire 1 ,! inst6|Selector0~0_combout $end
$var wire 1 -! inst6|Selector6~0_combout $end
$var wire 1 .! inst6|state.s0~DUPLICATE_q $end
$var wire 1 /! inst6|Selector7~0_combout $end
$var wire 1 0! inst6|state.s1~q $end
$var wire 1 1! inst6|Selector2~0_combout $end
$var wire 1 2! inst6|Add0~0_combout $end
$var wire 1 3! inst6|Selector1~0_combout $end
$var wire 1 4! inst6|state.s0~q $end
$var wire 1 5! inst6|Selector3~1_combout $end
$var wire 1 6! inst6|Selector3~0_combout $end
$var wire 1 7! inst6|Selector4~0_combout $end
$var wire 1 8! inst6|seconds~0_combout $end
$var wire 1 9! inst3|Mux0~0_combout $end
$var wire 1 :! inst6|Selector5~0_combout $end
$var wire 1 ;! inst3|Mux4~0_combout $end
$var wire 1 <! inst3|Mux5~0_combout $end
$var wire 1 =! inst3|Mux6~0_combout $end
$var wire 1 >! inst3|Mux7~0_combout $end
$var wire 1 ?! inst3|Mux8~0_combout $end
$var wire 1 @! inst3|Mux9~0_combout $end
$var wire 1 A! inst3|Mux10~0_combout $end
$var wire 1 B! inst4|Mux9~0_combout $end
$var wire 1 C! inst4|Mux9~1_combout $end
$var wire 1 D! inst6|statecounter~0_combout $end
$var wire 1 E! inst4|Mux9~2_combout $end
$var wire 1 F! inst6|ewr~0_combout $end
$var wire 1 G! inst|count [24] $end
$var wire 1 H! inst|count [23] $end
$var wire 1 I! inst|count [22] $end
$var wire 1 J! inst|count [21] $end
$var wire 1 K! inst|count [20] $end
$var wire 1 L! inst|count [19] $end
$var wire 1 M! inst|count [18] $end
$var wire 1 N! inst|count [17] $end
$var wire 1 O! inst|count [16] $end
$var wire 1 P! inst|count [15] $end
$var wire 1 Q! inst|count [14] $end
$var wire 1 R! inst|count [13] $end
$var wire 1 S! inst|count [12] $end
$var wire 1 T! inst|count [11] $end
$var wire 1 U! inst|count [10] $end
$var wire 1 V! inst|count [9] $end
$var wire 1 W! inst|count [8] $end
$var wire 1 X! inst|count [7] $end
$var wire 1 Y! inst|count [6] $end
$var wire 1 Z! inst|count [5] $end
$var wire 1 [! inst|count [4] $end
$var wire 1 \! inst|count [3] $end
$var wire 1 ]! inst|count [2] $end
$var wire 1 ^! inst|count [1] $end
$var wire 1 _! inst|count [0] $end
$var wire 1 `! inst6|seconds [3] $end
$var wire 1 a! inst6|seconds [2] $end
$var wire 1 b! inst6|seconds [1] $end
$var wire 1 c! inst6|seconds [0] $end
$var wire 1 d! inst6|count [3] $end
$var wire 1 e! inst6|count [2] $end
$var wire 1 f! inst6|count [1] $end
$var wire 1 g! inst6|count [0] $end
$upscope $end
$upscope $end
$enddefinitions $end
#0
$dumpvars
0!
0"
1#
0$
0%
0&
0'
0(
0)
0*
0+
0,
0-
0.
0/
10
01
02
03
04
05
06
17
08
19
0:
1;
0<
0=
x>
0?
1@
xA
1B
1C
1D
0E
0F
0G
1H
0I
0J
0K
0L
0M
0N
0O
0P
0Q
0R
0S
0T
0U
0V
0W
0X
0Y
0Z
0[
0\
0]
0^
0_
0`
0a
0b
0c
0d
0e
0f
0g
0h
0i
0j
0k
0l
0m
0n
0o
0p
0q
0r
0s
0t
0u
0v
0w
0x
0y
0z
0{
0|
0}
0~
0!!
0"!
0#!
0$!
0%!
0&!
0'!
0(!
0)!
0*!
0+!
0,!
0-!
0.!
0/!
00!
11!
12!
03!
04!
05!
06!
07!
08!
09!
0:!
0;!
0<!
0=!
0>!
0?!
0@!
0A!
1B!
1C!
0D!
0E!
0F!
0_!
0^!
0]!
0\!
0[!
0Z!
0Y!
0X!
0W!
0V!
0U!
0T!
0S!
0R!
0Q!
0P!
0O!
0N!
0M!
0L!
0K!
0J!
0I!
0H!
0G!
0c!
0b!
0a!
0`!
0g!
0f!
0e!
0d!
$end
#60000
1!
1"
1"!
0>
1F
1G
1_!
1|
0H
1}
#120000
0!
0"
0"!
1>
0F
0G
#180000
1!
1"
1"!
0>
1F
1G
1^!
0_!
0|
1I
1H
0}
0I
1}
1J
0J
#240000
0!
0"
0"!
1>
0F
0G
#300000
1!
1"
1"!
0>
1F
1G
1_!
1|
0H
1I
0}
1J
#360000
0!
0"
0"!
1>
0F
0G
#420000
1!
1"
1"!
0>
1F
1G
0^!
0_!
1]!
1K
0|
0I
0J
1H
1}
0K
1L
0}
1J
0L
#480000
0!
0"
0"!
1>
0F
0G
#540000
1!
1"
1"!
0>
1F
1G
1_!
1|
0H
1}
#600000
0!
0"
0"!
1>
0F
0G
#660000
1!
1"
1"!
0>
1F
1G
1^!
0_!
0|
1I
1H
0}
0I
1K
1}
0J
0K
1J
1L
0L
#720000
0!
0"
0"!
1>
0F
0G
#780000
1!
1"
1"!
0>
1F
1G
1_!
1|
0H
1I
0}
1K
0J
1L
#840000
0!
0"
0"!
1>
0F
0G
#900000
1!
1"
1"!
0>
1F
1G
0^!
0_!
1\!
0]!
0K
1M
0|
0I
1J
0L
1H
1}
0M
1L
1N
0}
0J
0N
#960000
0!
0"
0"!
1>
0F
0G
